2015_2016_test/tbacc.vcd
$date
	Sun Nov 10 11:06:18 2019
$end
$version
	Icarus Verilog
$end
$timescale
	1s
$end
$scope module tbacc $end
$var wire 1 ! accrst2 $end
$var wire 1 " accrst1 $end
$var reg 1 # clk $end
$var reg 1 $ reset $end
$scope module ac $end
$var wire 1 # clk $end
$var wire 1 $ reset $end
$var wire 4 % q [3:0] $end
$var wire 1 ! accrst2 $end
$var wire 1 " accrst1 $end
$scope module df1 $end
$var wire 1 # clk $end
$var wire 1 & d $end
$var wire 1 $ reset $end
$var reg 1 ' q $end
$upscope $end
$scope module df2 $end
$var wire 1 ( clk $end
$var wire 1 ) d $end
$var wire 1 $ reset $end
$var reg 1 * q $end
$upscope $end
$scope module df3 $end
$var wire 1 + clk $end
$var wire 1 , d $end
$var wire 1 $ reset $end
$var reg 1 " q $end
$upscope $end
$scope module df4 $end
$var wire 1 " clk $end
$var wire 1 - d $end
$var wire 1 $ reset $end
$var reg 1 ! q $end
$upscope $end
$upscope $end
$upscope $end
$enddefinitions $end
#0
$dumpvars
x-
x,
x+
x*
x)
x(
x'
x&
bzxx %
x$
0#
x"
x!
$end
#5
1&
0(
bzx0 %
0'
1#
#10
1)
0+
1,
1-
bz00 %
0*
0"
0!
0#
0$
#15
1#
#20
0#
1$
#25
0-
1!
0,
1"
0)
1+
1*
0&
1(
bz11 %
1'
1#
#30
1&
1)
0(
0+
1,
1-
0'
bz00 %
0*
0"
0!
0#
0$
#35
1#
#40
0#
#45
1#
#50
0#
#55
1#
#60
0#
#65
1#
#70
0#
#75
1#
#80
0#
#85
1#
#90
0#
#95
1#
#100
0#
#105
1#
#110
0#
#115
1#
#120
0#
#125
1#
#130
0#
1$
#135
0-
1!
0,
1"
0)
1+
1*
0&
1(
bz11 %
1'
1#
#140
0#
#145
1&
0(
bz10 %
0'
1#
#150
0#
#155
1)
0+
0*
0&
1(
bz01 %
1'
1#
#160
0#
#165
1&
0(
bz00 %
0'
1#
#170
0#
#175
1,
0"
0)
1+
1*
0&
1(
bz11 %
1'
1#
#180
0#
#185
1&
0(
bz10 %
0'
1#
#190
0#
#195
1)
0+
0*
0&
1(
bz01 %
1'
1#
#200
0#
#205
1&
0(
bz00 %
0'
1#
#210
0#
#215
1-
0!
0,
1"
0)
1+
1*
0&
1(
bz11 %
1'
1#
#220
0#
#225
1&
0(
bz10 %
0'
1#
#230
0#
#235
1)
0+
0*
0&
1(
bz01 %
1'
1#
#240
0#
#245
1&
0(
bz00 %
0'
1#
#250
0#
#255
1,
0"
0)
1+
1*
0&
1(
bz11 %
1'
1#
#260
0#
#265
1&
0(
bz10 %
0'
1#
#270
0#
#275
1)
0+
0*
0&
1(
bz01 %
1'
1#
#280
0#
#285
1&
0(
bz00 %
0'
1#
#290
0#
#295
0-
1!
0,
1"
0)
1+
1*
0&
1(
bz11 %
1'
1#
#300
0#
#305
1&
0(
bz10 %
0'
1#
#310
0#
#315
1)
0+
0*
0&
1(
bz01 %
1'
1#
#320
0#
#325
1&
0(
bz00 %
0'
1#
#330
0#
#335
1,
0"
0)
1+
1*
0&
1(
bz11 %
1'
1#
#340
0#
#345
1&
0(
bz10 %
0'
1#
#350
0#
#355
1)
0+
0*
0&
1(
bz01 %
1'
1#
#360
0#
#365
1&
0(
bz00 %
0'
1#
#370
0#
#375
1-
0!
0,
1"
0)
1+
1*
0&
1(
bz11 %
1'
1#
#380
0#
#385
1&
0(
bz10 %
0'
1#
#390
0#
#395
1)
0+
0*
0&
1(
bz01 %
1'
1#
#400
0#
#405
1&
0(
bz00 %
0'
1#
#410
0#
#415
1,
0"
0)
1+
1*
0&
1(
bz11 %
1'
1#
#420
0#
#425
1&
0(
bz10 %
0'
1#
#430
0#
#435
1)
0+
0*
0&
1(
bz01 %
1'
1#
#440
0#
#445
1&
0(
bz00 %
0'
1#
#450
0#
#455
0-
1!
0,
1"
0)
1+
1*
0&
1(
bz11 %
1'
1#
#460
0#
#465
1&
0(
bz10 %
0'
1#
#470
0#
#475
1)
0+
0*
0&
1(
bz01 %
1'
1#
#480
0#
#485
1&
0(
bz00 %
0'
1#
#490
0#
#495
1,
0"
0)
1+
1*
0&
1(
bz11 %
1'
1#
#500
0#
#505
1&
0(
bz10 %
0'
1#
#510
0#
#515
1)
0+
0*
0&
1(
bz01 %
1'
1#
#520
0#
#525
1&
0(
bz00 %
0'
1#
#530
0#
#535
1-
0!
0,
1"
0)
1+
1*
0&
1(
bz11 %
1'
1#
#540
0#
#545
1&
0(
bz10 %
0'
1#
#550
0#
#555
1)
0+
0*
0&
1(
bz01 %
1'
1#
#560
0#
#565
1&
0(
bz00 %
0'
1#
#570
0#
#575
1,
0"
0)
1+
1*
0&
1(
bz11 %
1'
1#
#580
0#
#585
1&
0(
bz10 %
0'
1#
#590
0#
#595
1)
0+
0*
0&
1(
bz01 %
1'
1#
#600
0#
#605
1&
0(
bz00 %
0'
1#
#610
0#
#615
0-
1!
0,
1"
0)
1+
1*
0&
1(
bz11 %
1'
1#
#620
0#
#625
1&
0(
bz10 %
0'
1#
#630
0#
#635
1)
0+
0*
0&
1(
bz01 %
1'
1#
#640
0#
#645
1&
0(
bz00 %
0'
1#
#650
0#
#655
1,
0"
0)
1+
1*
0&
1(
bz11 %
1'
1#
#660
0#
#665
1&
0(
bz10 %
0'
1#
#670
0#
#675
1)
0+
0*
0&
1(
bz01 %
1'
1#
#680
0#
#685
1&
0(
bz00 %
0'
1#
#690
0#
#695
1-
0!
0,
1"
0)
1+
1*
0&
1(
bz11 %
1'
1#
#700
0#
#705
1&
0(
bz10 %
0'
1#
#710
0#
#715
1)
0+
0*
0&
1(
bz01 %
1'
1#
#720
0#
#725
1&
0(
bz00 %
0'
1#
#730
0#
#735
1,
0"
0)
1+
1*
0&
1(
bz11 %
1'
1#
#740
0#
#745
1&
0(
bz10 %
0'
1#
#750
0#
#755
1)
0+
0*
0&
1(
bz01 %
1'
1#
#760
0#
#765
1&
0(
bz00 %
0'
1#
#770
0#
#775
0-
1!
0,
1"
0)
1+
1*
0&
1(
bz11 %
1'
1#
#780
0#
#785
1&
0(
bz10 %
0'
1#
#790
0#
#795
1)
0+
0*
0&
1(
bz01 %
1'
1#
#800
0#
#805
1&
0(
bz00 %
0'
1#
#810
0#
#815
1,
0"
0)
1+
1*
0&
1(
bz11 %
1'
1#
#820
0#
#825
1&
0(
bz10 %
0'
1#
#830
0#
#835
1)
0+
0*
0&
1(
bz01 %
1'
1#
#840
0#
#845
1&
0(
bz00 %
0'
1#
#850
0#
#855
1-
0!
0,
1"
0)
1+
1*
0&
1(
bz11 %
1'
1#
#860
0#
#865
1&
0(
bz10 %
0'
1#
#870
0#
#875
1)
0+
0*
0&
1(
bz01 %
1'
1#
#880
0#
#885
1&
0(
bz00 %
0'
1#
#890
0#
#895
1,
0"
0)
1+
1*
0&
1(
bz11 %
1'
1#
#900
0#
#905
1&
0(
bz10 %
0'
1#
#910
0#
#915
1)
0+
0*
0&
1(
bz01 %
1'
1#
#920
0#
#925
1&
0(
bz00 %
0'
1#
#930
0#
#935
0-
1!
0,
1"
0)
1+
1*
0&
1(
bz11 %
1'
1#
#940
0#
#945
1&
0(
bz10 %
0'
1#
#950
0#
#955
1)
0+
0*
0&
1(
bz01 %
1'
1#
#960
0#
#965
1&
0(
bz00 %
0'
1#
#970
0#
#975
1,
0"
0)
1+
1*
0&
1(
bz11 %
1'
1#
#980
0#
#985
1&
0(
bz10 %
0'
1#
#990
0#
#995
1)
0+
0*
0&
1(
bz01 %
1'
1#
#1000
0#
#1005
1&
0(
bz00 %
0'
1#
#1010
0#
#1015
1-
0!
0,
1"
0)
1+
1*
0&
1(
bz11 %
1'
1#
#1020
0#
#1025
1&
0(
bz10 %
0'
1#
#1030
0#
#1035
1)
0+
0*
0&
1(
bz01 %
1'
1#
#1040
0#
#1045
1&
0(
bz00 %
0'
1#
#1050
0#
#1055
1,
0"
0)
1+
1*
0&
1(
bz11 %
1'
1#
#1060
0#
#1065
1&
0(
bz10 %
0'
1#
#1070
0#
#1075
1)
0+
0*
0&
1(
bz01 %
1'
1#
#1080
0#
#1085
1&
0(
bz00 %
0'
1#
#1090
0#
#1095
0-
1!
0,
1"
0)
1+
1*
0&
1(
bz11 %
1'
1#
#1100
0#
#1105
1&
0(
bz10 %
0'
1#
#1110
0#
#1115
1)
0+
0*
0&
1(
bz01 %
1'
1#
#1120
0#
#1125
1&
0(
bz00 %
0'
1#
